Scheme
{
	Fonts
	{
		"Blank"
		{
			"1"
			{
				"name" "Blank"
				"tall" "0"
				"antialias"	"0"
			}
		}
	}
	CustomFontFiles
	{
		"8"
		{
			"font" "resource/fonts/Blank.otf"
			"name" "Blank"
		}
		"9"
		{
			"font" "resource/fonts/Blocks.ttf"
			"name" "Blocks"
		}
		"10"
		{
			"font" "resource/fonts/Minimal5x7.ttf"
			"name" "Minimal"
		}
	}
}